{
  "patch_size": 224,
  "augmentation": false,
  "num_gpus": 8,
  "num_workers": 8,
  "num_channel": 3,
  "EF": false,
  "epochs": 100,
  "batch_size": 8,
  "learning_rate": 1e-3,
  "weight_decay": 1e-2,
  "loss_function": "hybrid",
  "dataset_dir": "/cluster/work/igp_psr/data/AI4Good/project_3a/data/config_3A/despeckled2/",
  "weight_dir": "./outputs/",
  "log_dir": "./log/",
  "pretrained_bool": true,
  "pretrained_path": "./pretrained/snunet-48.pt"
}
